{
  "include_total": true,
  "limit": 2,
  "offset": 0,
  "records_format": "objects",
  "resource_id": "e4eaa1b4-eb1a-4534-b227-988ee25b898d",
  "total_estimation_threshold": null,
  "records": [
    {
      "_id": 1,
      "ลำดับ": 1,
      "รหัสโครงการ": 67039549408,
      "ชื่อโครงการ": "ประกวดราคาจ้างก่อสร้างงานจ้างก่อสร้างโครงการรถไฟทางคู่ ช่วงขอนแก่น-หนองคาย ด้วยวิธีประกวดราคาอิเล็กทรอนิกส์ (e-bidding)",
      "ชื่อประเภทโครงการ": "จ้างก่อสร้าง",
      "ชื่อหน่วยงาน": "การรถไฟแห่งประเทศไทย",
      "ชื่อหน่วยงานย่อย": "ฝ่ายโครงการพิเศษและก่อสร้าง",
      "วิธีจัดซื้อฯ": "วิธีการจัดหา ประกาศเชิญชวนทั่วไป คัดเลือก เฉพาะเจาะจง",
      "กลุ่มวิธีจัดซื้อฯ": "ประกวดราคาอิเล็กทรอนิกส์ (e-bidding)",
      "วันที่ประกาศ": "21 มิ.ย. 67",
      "งบประมาณ(บาท)": 28759000000,
      "ราคากลาง(บาท)": 28719940000,
      "ราคาตกลงซื้อ/จ้าง": 28679000000,
      "ปีงบประมาณ": 2568,
      "วันที่เกิดรายการ": "12 ธ.ค. 67",
      "จังหวัด": "กรุงเทพมหานคร",
      "จังหวัด(Eng)": "ปทุมวัน",
      "เขต/อำเภอ": "รองเมือง",
      "เขต/อำเภอ(Eng)": "ระหว่างดำเนินการ",
      "แขวง/ตำบล": "POINT(102.82574415206909 16.426720674030822)",
      "แขวง/ตำบล(Eng)": 16.426720674031,
      "สถานะโครงการ": 102.82574415207,
      "พิกัดของโครงการ": "0993000510631",
      "ละติจูดโครงการ": "กิจการร่วมค้า ช.ทวี - เอเอส ก่อสร้าง",
      "ลองจิจูดโครงการ": "กส.14/ทค./2567",
      "เลขนิติบุคคล": "12 ธ.ค. 67",
      "ชื่อผู้ชนะ": "31 มี.ค. 71",
      "เลขที่สัญญา": 28679000000,
      "วันที่ลงนามสัญญา": "ระหว่างดำเนินการ",
      "วันที่สิ้นสุดสัญญา": null,
      "งบสัญญา(บาท)": null,
      "สถานะสัญญา": null
    },
    {
      "_id": 2,
      "ลำดับ": 2,
      "รหัสโครงการ": 66089621504,
      "ชื่อโครงการ": "ประกวดราคาจ้างงานจ้างจัดหา พัฒนา ติดตั้ง และดูแลบำรุงรักษา ระบบสาธารณูปโภคด้านไฟฟ้า (Utility Platform  UTP) ของ กฟภ. ด้วยวิธีประกวดราคาอิเล็กทรอนิกส์ (e-bidding)",
      "ชื่อประเภทโครงการ": "จ้างทำของ/จ้างเหมาบริการ",
      "ชื่อหน่วยงาน": "การไฟฟ้าส่วนภูมิภาค",
      "ชื่อหน่วยงานย่อย": "กองปฏิบัติการและบำรุงรักษาระบบดิจิทัลด้านการจัดการองค์กร",
      "วิธีจัดซื้อฯ": "วิธีการจัดหา ประกาศเชิญชวนทั่วไป คัดเลือก เฉพาะเจาะจง",
      "กลุ่มวิธีจัดซื้อฯ": "ประกวดราคาอิเล็กทรอนิกส์ (e-bidding)",
      "วันที่ประกาศ": "3 ธ.ค. 67",
      "งบประมาณ(บาท)": 3261798700,
      "ราคากลาง(บาท)": 2964014498,
      "ราคาตกลงซื้อ/จ้าง": 3127117800,
      "ปีงบประมาณ": 2568,
      "วันที่เกิดรายการ": "18 มิ.ย. 68",
      "จังหวัด": "กรุงเทพมหานคร",
      "จังหวัด(Eng)": "จตุจักร",
      "เขต/อำเภอ": "ลาดยาว",
      "เขต/อำเภอ(Eng)": "ระหว่างดำเนินการ",
      "แขวง/ตำบล": "",
      "แขวง/ตำบล(Eng)": null,
      "สถานะโครงการ": null,
      "พิกัดของโครงการ": "0105543008219",
      "ละติจูดโครงการ": "บริษัท พอร์ทัลเน็ท  จำกัด",
      "ลองจิจูดโครงการ": "จ.52/2568",
      "เลขนิติบุคคล": "18 มิ.ย. 68",
      "ชื่อผู้ชนะ": "7 มิ.ย. 75",
      "เลขที่สัญญา": 3127117800,
      "วันที่ลงนามสัญญา": "ระหว่างดำเนินการ",
      "วันที่สิ้นสุดสัญญา": null,
      "งบสัญญา(บาท)": null,
      "สถานะสัญญา": null
    }
  ],
  "fields": [
    {
      "id": "_id",
      "type": "int"
    },
    {
      "id": "ลำดับ",
      "type": "numeric"
    },
    {
      "id": "รหัสโครงการ",
      "type": "numeric"
    },
    {
      "id": "ชื่อโครงการ",
      "type": "text"
    },
    {
      "id": "ชื่อประเภทโครงการ",
      "type": "text"
    },
    {
      "id": "ชื่อหน่วยงาน",
      "type": "text"
    },
    {
      "id": "ชื่อหน่วยงานย่อย",
      "type": "text"
    },
    {
      "id": "วิธีจัดซื้อฯ",
      "type": "text"
    },
    {
      "id": "กลุ่มวิธีจัดซื้อฯ",
      "type": "text"
    },
    {
      "id": "วันที่ประกาศ",
      "type": "text"
    },
    {
      "id": "งบประมาณ(บาท)",
      "type": "numeric"
    },
    {
      "id": "ราคากลาง(บาท)",
      "type": "numeric"
    },
    {
      "id": "ราคาตกลงซื้อ/จ้าง",
      "type": "numeric"
    },
    {
      "id": "ปีงบประมาณ",
      "type": "numeric"
    },
    {
      "id": "วันที่เกิดรายการ",
      "type": "text"
    },
    {
      "id": "จังหวัด",
      "type": "text"
    },
    {
      "id": "จังหวัด(Eng)",
      "type": "text"
    },
    {
      "id": "เขต/อำเภอ",
      "type": "text"
    },
    {
      "id": "เขต/อำเภอ(Eng)",
      "type": "text"
    },
    {
      "id": "แขวง/ตำบล",
      "type": "text"
    },
    {
      "id": "แขวง/ตำบล(Eng)",
      "type": "numeric"
    },
    {
      "id": "สถานะโครงการ",
      "type": "numeric"
    },
    {
      "id": "พิกัดของโครงการ",
      "type": "text"
    },
    {
      "id": "ละติจูดโครงการ",
      "type": "text"
    },
    {
      "id": "ลองจิจูดโครงการ",
      "type": "text"
    },
    {
      "id": "เลขนิติบุคคล",
      "type": "text"
    },
    {
      "id": "ชื่อผู้ชนะ",
      "type": "text"
    },
    {
      "id": "เลขที่สัญญา",
      "type": "numeric"
    },
    {
      "id": "วันที่ลงนามสัญญา",
      "type": "text"
    },
    {
      "id": "วันที่สิ้นสุดสัญญา",
      "type": "text"
    },
    {
      "id": "งบสัญญา(บาท)",
      "type": "text"
    },
    {
      "id": "สถานะสัญญา",
      "type": "text"
    }
  ],
  "_links": {
    "start": "/api/3/action/datastore_search?resource_id=e4eaa1b4-eb1a-4534-b227-988ee25b898d&limit=2",
    "next": "/api/3/action/datastore_search?resource_id=e4eaa1b4-eb1a-4534-b227-988ee25b898d&limit=2&offset=2"
  },
  "total": 511606,
  "total_was_estimated": false
}